1. Summary
Meeting title	DB
Attended participants	9
Start time	10/10/22, 8:29:03 AM
End time	10/10/22, 9:51:20 AM
Meeting duration	1h 22m 18s
Average attendance time	1h 20m 32s

2. Participants
Name	First join	Last leave	In-meeting duration	Email	Participant ID (UPN)	Role
Diego Jauregui Salvatierra	10/10/22, 8:29:04 AM	10/10/22, 9:51:19 AM	1h 22m 14s	Diego.Jauregui@jala.university	Diego.Jauregui@jala.university	Presenter
Andres Galvis Bolivar	10/10/22, 8:29:13 AM	10/10/22, 9:51:16 AM	1h 22m 2s	Andres.Galvis@jala.university	Andres.Galvis@jala.university	Presenter
Camilo Villalba Sanz	10/10/22, 8:29:19 AM	10/10/22, 9:51:18 AM	1h 21m 58s	Camilo.Villalba@jala.university	Camilo.Villalba@jala.university	Presenter
Sergio Mallea Morales	10/10/22, 8:29:39 AM	10/10/22, 9:51:20 AM	1h 21m 41s	Sergio.Mallea@jala.university	Sergio.Mallea@jala.university	Presenter
Maria Marquina Guevara	10/10/22, 8:30:04 AM	10/10/22, 9:51:18 AM	1h 21m 13s	Maria.Marquina@jala.university	Maria.Marquina@jala.university	Organizer
Martin Ferreyra	10/10/22, 8:30:31 AM	10/10/22, 9:51:19 AM	1h 20m 48s	Martin.Ferreyra@jala.university	Martin.Ferreyra@jala.university	Presenter
Jesus Vallecilla Solano	10/10/22, 8:30:47 AM	10/10/22, 9:51:20 AM	1h 20m 33s	Jesus.Vallecilla@jala.university	Jesus.Vallecilla@jala.university	Presenter
Adrian Clavijo Lopez	10/10/22, 8:31:40 AM	10/10/22, 9:51:18 AM	1h 19m 38s	Adrian.Clavijo@jala.university	Adrian.Clavijo@jala.university	Presenter
Jason Pineda Serna	10/10/22, 8:36:36 AM	10/10/22, 9:51:17 AM	1h 14m 40s	Jason.Pineda@jala.university	Jason.Pineda@jala.university	Presenter

3. In-Meeting activities
Name	Join time	Leave time	Duration	Email	Role
Diego Jauregui Salvatierra	10/10/22, 8:29:04 AM	10/10/22, 9:51:19 AM	1h 22m 14s	Diego.Jauregui@jala.university	Presenter
Andres Galvis Bolivar	10/10/22, 8:29:13 AM	10/10/22, 9:51:16 AM	1h 22m 2s	Andres.Galvis@jala.university	Presenter
Camilo Villalba Sanz	10/10/22, 8:29:19 AM	10/10/22, 9:51:18 AM	1h 21m 58s	Camilo.Villalba@jala.university	Presenter
Sergio Mallea Morales	10/10/22, 8:29:39 AM	10/10/22, 9:51:20 AM	1h 21m 41s	Sergio.Mallea@jala.university	Presenter
Maria Marquina Guevara	10/10/22, 8:30:04 AM	10/10/22, 9:51:18 AM	1h 21m 13s	Maria.Marquina@jala.university	Organizer
Martin Ferreyra	10/10/22, 8:30:31 AM	10/10/22, 9:51:19 AM	1h 20m 48s	Martin.Ferreyra@jala.university	Presenter
Jesus Vallecilla Solano	10/10/22, 8:30:47 AM	10/10/22, 9:51:20 AM	1h 20m 33s	Jesus.Vallecilla@jala.university	Presenter
Adrian Clavijo Lopez	10/10/22, 8:31:40 AM	10/10/22, 9:51:18 AM	1h 19m 38s	Adrian.Clavijo@jala.university	Presenter
Jason Pineda Serna	10/10/22, 8:36:36 AM	10/10/22, 9:51:17 AM	1h 14m 40s	Jason.Pineda@jala.university	Presenter
