1. Summary
Meeting title	LEX Workshop
Attended participants	8
Start time	5/27/22, 10:00:00 AM
End time	5/27/22, 11:17:18 AM
Meeting duration	1h 17m 18s
Average attendance time	1h 14m 46s

2. Participants
Name	First join	Last leave	In-meeting duration	Email	Participant ID (UPN)	Role
Joaquin Aman Alvarez	5/27/22, 10:00:10 AM	5/27/22, 11:17:18 AM	1h 17m 7s	Joaquin.Aman@jala-foundation.org	Joaquin.Aman@jala-foundation.org	Presenter
Martin Gonzalez Torrilla	5/27/22, 10:00:11 AM	5/27/22, 11:16:45 AM	1h 16m 33s	Martin.Gonzalez@jala-foundation.org	Martin.Gonzalez@jala-foundation.org	Presenter
Martin Pavesio Sabini	5/27/22, 10:00:16 AM	5/27/22, 11:16:40 AM	1h 16m 23s	Martin.Pavesio@jala-foundation.org	Martin.Pavesio@jala-foundation.org	Presenter
Luis Becerra Vazquez	5/27/22, 10:00:19 AM	5/27/22, 11:16:37 AM	1h 16m 17s	Luis.Becerra@jala-foundation.org	Luis.Becerra@jala-foundation.org	Presenter
Kevin Cardenas Rodriguez	5/27/22, 10:00:55 AM	5/27/22, 11:16:38 AM	1h 15m 42s	Kevin.Cardenas@jala-foundation.org	Kevin.Cardenas@jala-foundation.org	Presenter
Cesar Illanes Argote	5/27/22, 10:01:11 AM	5/27/22, 11:16:38 AM	1h 15m 27s	Cesar.Illanes@jala-foundation.org	Cesar.Illanes@jala-foundation.org	Presenter
Leonardo Villalba Ferrer	5/27/22, 10:01:29 AM	5/27/22, 11:16:36 AM	1h 15m 7s	Leonardo.Villalba@jala-foundation.org	Leonardo.Villalba@jala-foundation.org	Presenter
Maria Marquina Guevara	5/27/22, 10:11:05 AM	5/27/22, 11:16:36 AM	1h 5m 31s	Maria.Marquina@fundacion-jala.org	Maria.Marquina@fundacion-jala.org	Organizer

3. In-Meeting activities
Name	Join time	Leave time	Duration	Email	Role
Joaquin Aman Alvarez	5/27/22, 10:00:10 AM	5/27/22, 11:17:18 AM	1h 17m 7s	Joaquin.Aman@jala-foundation.org	Presenter
Martin Gonzalez Torrilla	5/27/22, 10:00:11 AM	5/27/22, 11:16:45 AM	1h 16m 33s	Martin.Gonzalez@jala-foundation.org	Presenter
Martin Pavesio Sabini	5/27/22, 10:00:16 AM	5/27/22, 11:16:40 AM	1h 16m 23s	Martin.Pavesio@jala-foundation.org	Presenter
Luis Becerra Vazquez	5/27/22, 10:00:19 AM	5/27/22, 11:16:37 AM	1h 16m 17s	Luis.Becerra@jala-foundation.org	Presenter
Kevin Cardenas Rodriguez	5/27/22, 10:00:55 AM	5/27/22, 11:16:38 AM	1h 15m 42s	Kevin.Cardenas@jala-foundation.org	Presenter
Cesar Illanes Argote	5/27/22, 10:01:11 AM	5/27/22, 11:16:38 AM	1h 15m 27s	Cesar.Illanes@jala-foundation.org	Presenter
Leonardo Villalba Ferrer	5/27/22, 10:01:29 AM	5/27/22, 11:16:36 AM	1h 15m 7s	Leonardo.Villalba@jala-foundation.org	Presenter
Maria Marquina Guevara	5/27/22, 10:11:05 AM	5/27/22, 11:16:36 AM	1h 5m 31s	Maria.Marquina@fundacion-jala.org	Organizer
