1. Summary
Meeting title	Python Training [week 6] - [week 13]
Attended participants	18
Start time	11/16/22, 4:55:26 PM
End time	11/16/22, 6:06:47 PM
Meeting duration	1h 11m 21s
Average attendance time	1h 7m 43s

2. Participants
Name	First join	Last leave	In-meeting duration	Email	Participant ID (UPN)	Role
Andre Arroyo Hinojosa	11/16/22, 4:55:31 PM	11/16/22, 6:06:40 PM	1h 11m 8s	Andre.Arroyo@jala.university	Andre.Arroyo@jala.university	Presenter
Miguel Pozo Morales	11/16/22, 4:55:40 PM	11/16/22, 6:06:36 PM	1h 10m 55s	Miguel.Pozo@jala.university	Miguel.Pozo@jala.university	Presenter
Diego Alarcon Inturias	11/16/22, 4:55:41 PM	11/16/22, 6:06:36 PM	1h 10m 54s	Diego.Alarcon@jala.university	Diego.Alarcon@jala.university	Presenter
Diego Quisbert Gutierrez	11/16/22, 4:55:48 PM	11/16/22, 6:06:37 PM	1h 10m 49s	Diego.Quisbert@jala.university	Diego.Quisbert@jala.university	Presenter
Sebastian Arbelaez Meneses	11/16/22, 4:56:53 PM	11/16/22, 6:06:37 PM	1h 9m 43s	Sebastian.Arbelaez@jala.university	Sebastian.Arbelaez@jala.university	Presenter
Kevin Butvilofsky	11/16/22, 4:57:08 PM	11/16/22, 6:06:37 PM	1h 9m 29s	Kevin.Butvilofsky@jala.university	Kevin.Butvilofsky@jala.university	Presenter
Miguel Paricahua Lopez	11/16/22, 4:57:41 PM	11/16/22, 6:06:43 PM	1h 9m 2s	Miguel.Paricahua@jala.university	Miguel.Paricahua@jala.university	Presenter
Rodrigo Morales Rivas	11/16/22, 4:58:00 PM	11/16/22, 6:06:42 PM	1h 8m 42s	Rodrigo.Morales@jala.university	Rodrigo.Morales@jala.university	Presenter
Dayana Hernandez Aquize	11/16/22, 4:58:39 PM	11/16/22, 6:06:42 PM	1h 8m 2s	Dayana.Hernandez@jala.university	Dayana.Hernandez@jala.university	Presenter
Alejandra Maldonado	11/16/22, 4:59:33 PM	11/16/22, 6:06:47 PM	1h 7m 13s	Alejandra.Maldonado@jala.university	Alejandra.Maldonado@jala.university	Presenter
Maria Marquina Guevara	11/16/22, 4:59:54 PM	11/16/22, 6:06:37 PM	1h 6m 42s	Maria.Marquina@jala.university	Maria.Marquina@jala.university	Organizer
Renan Boaventura	11/16/22, 5:00:08 PM	11/16/22, 6:06:38 PM	1h 6m 30s	Renan.Boaventura@jala.university	Renan.Boaventura@jala.university	Presenter
Ivan Gonzalez de la Torre	11/16/22, 5:00:17 PM	11/16/22, 6:05:06 PM	1h 4m 48s	Ivan.Gonzalez@jala.university	Ivan.Gonzalez@jala.university	Presenter
Nelson Delgado Colque	11/16/22, 5:00:43 PM	11/16/22, 6:06:37 PM	1h 5m 53s	Nelson.Delgado@jala.university	Nelson.Delgado@jala.university	Presenter
Brayan Vasquez Rojas	11/16/22, 5:00:58 PM	11/16/22, 6:06:41 PM	1h 5m 42s	Brayan.Vasquez@jala.university	Brayan.Vasquez@jala.university	Presenter
Miguel Gemio Quispe	11/16/22, 5:01:16 PM	11/16/22, 6:06:34 PM	1h 5m 17s	Miguel.Gemio@jala.university	Miguel.Gemio@jala.university	Presenter
Alex Perez Castillo	11/16/22, 5:02:12 PM	11/16/22, 6:06:38 PM	1h 4m 26s	Alex.Perez@jala.university	Alex.Perez@jala.university	Presenter
Israel Zurita Sanchez	11/16/22, 5:03:01 PM	11/16/22, 6:06:36 PM	1h 3m 34s	Israel.Zurita@jala.university	Israel.Zurita@jala.university	Presenter

3. In-Meeting activities
Name	Join time	Leave time	Duration	Email	Role
Andre Arroyo Hinojosa	11/16/22, 4:55:31 PM	11/16/22, 6:06:40 PM	1h 11m 8s	Andre.Arroyo@jala.university	Presenter
Miguel Pozo Morales	11/16/22, 4:55:40 PM	11/16/22, 6:06:36 PM	1h 10m 55s	Miguel.Pozo@jala.university	Presenter
Diego Alarcon Inturias	11/16/22, 4:55:41 PM	11/16/22, 6:06:36 PM	1h 10m 54s	Diego.Alarcon@jala.university	Presenter
Diego Quisbert Gutierrez	11/16/22, 4:55:48 PM	11/16/22, 6:06:37 PM	1h 10m 49s	Diego.Quisbert@jala.university	Presenter
Sebastian Arbelaez Meneses	11/16/22, 4:56:53 PM	11/16/22, 6:06:37 PM	1h 9m 43s	Sebastian.Arbelaez@jala.university	Presenter
Kevin Butvilofsky	11/16/22, 4:57:08 PM	11/16/22, 6:06:37 PM	1h 9m 29s	Kevin.Butvilofsky@jala.university	Presenter
Miguel Paricahua Lopez	11/16/22, 4:57:41 PM	11/16/22, 6:06:43 PM	1h 9m 2s	Miguel.Paricahua@jala.university	Presenter
Rodrigo Morales Rivas	11/16/22, 4:58:00 PM	11/16/22, 6:06:42 PM	1h 8m 42s	Rodrigo.Morales@jala.university	Presenter
Dayana Hernandez Aquize	11/16/22, 4:58:39 PM	11/16/22, 6:06:42 PM	1h 8m 2s	Dayana.Hernandez@jala.university	Presenter
Alejandra Maldonado	11/16/22, 4:59:33 PM	11/16/22, 6:06:47 PM	1h 7m 13s	Alejandra.Maldonado@jala.university	Presenter
Maria Marquina Guevara	11/16/22, 4:59:54 PM	11/16/22, 6:06:37 PM	1h 6m 42s	Maria.Marquina@jala.university	Organizer
Renan Boaventura	11/16/22, 5:00:08 PM	11/16/22, 6:06:38 PM	1h 6m 30s	Renan.Boaventura@jala.university	Presenter
Ivan Gonzalez de la Torre	11/16/22, 5:00:17 PM	11/16/22, 6:05:06 PM	1h 4m 48s	Ivan.Gonzalez@jala.university	Presenter
Nelson Delgado Colque	11/16/22, 5:00:43 PM	11/16/22, 6:06:37 PM	1h 5m 53s	Nelson.Delgado@jala.university	Presenter
Brayan Vasquez Rojas	11/16/22, 5:00:58 PM	11/16/22, 6:06:41 PM	1h 5m 42s	Brayan.Vasquez@jala.university	Presenter
Miguel Gemio Quispe	11/16/22, 5:01:16 PM	11/16/22, 6:06:34 PM	1h 5m 17s	Miguel.Gemio@jala.university	Presenter
Alex Perez Castillo	11/16/22, 5:02:12 PM	11/16/22, 6:06:38 PM	1h 4m 26s	Alex.Perez@jala.university	Presenter
Israel Zurita Sanchez	11/16/22, 5:03:01 PM	11/16/22, 6:06:36 PM	1h 3m 34s	Israel.Zurita@jala.university	Presenter
