1. Summary
Meeting title	Python Training [week 6] - [week 13]
Attended participants	19
Start time	11/18/22, 4:55:26 PM
End time	11/18/22, 6:33:11 PM
Meeting duration	1h 37m 45s
Average attendance time	1h 33m 33s

2. Participants
Name	First join	Last leave	In-meeting duration	Email	Participant ID (UPN)	Role
Kevin Butvilofsky	11/18/22, 4:55:33 PM	11/18/22, 6:33:00 PM	1h 37m 26s	Kevin.Butvilofsky@jala.university	Kevin.Butvilofsky@jala.university	Presenter
Sebastian Arbelaez Meneses	11/18/22, 4:55:46 PM	11/18/22, 6:33:08 PM	1h 37m 21s	Sebastian.Arbelaez@jala.university	Sebastian.Arbelaez@jala.university	Presenter
Rodrigo Morales Rivas	11/18/22, 4:56:54 PM	11/18/22, 6:33:00 PM	1h 36m 5s	Rodrigo.Morales@jala.university	Rodrigo.Morales@jala.university	Presenter
Miguel Pozo Morales	11/18/22, 4:57:32 PM	11/18/22, 6:32:59 PM	1h 35m 27s	Miguel.Pozo@jala.university	Miguel.Pozo@jala.university	Presenter
Jose Mendoza Antonio	11/18/22, 4:57:40 PM	11/18/22, 6:33:01 PM	1h 35m 20s	Jose.Mendoza@jala.university	Jose.Mendoza@jala.university	Presenter
Diego Quisbert Gutierrez	11/18/22, 4:57:56 PM	11/18/22, 6:32:59 PM	1h 35m 3s	Diego.Quisbert@jala.university	Diego.Quisbert@jala.university	Presenter
Brayan Vasquez Rojas	11/18/22, 4:58:48 PM	11/18/22, 6:33:04 PM	1h 34m 16s	Brayan.Vasquez@jala.university	Brayan.Vasquez@jala.university	Presenter
Andre Arroyo Hinojosa	11/18/22, 4:58:48 PM	11/18/22, 6:33:00 PM	1h 34m 11s	Andre.Arroyo@jala.university	Andre.Arroyo@jala.university	Presenter
Israel Zurita Sanchez	11/18/22, 4:58:56 PM	11/18/22, 6:33:11 PM	1h 34m 15s	Israel.Zurita@jala.university	Israel.Zurita@jala.university	Presenter
Miguel Paricahua Lopez	11/18/22, 4:59:02 PM	11/18/22, 6:32:58 PM	1h 33m 56s	Miguel.Paricahua@jala.university	Miguel.Paricahua@jala.university	Presenter
Nelson Delgado Colque	11/18/22, 4:59:04 PM	11/18/22, 6:33:01 PM	1h 33m 57s	Nelson.Delgado@jala.university	Nelson.Delgado@jala.university	Presenter
Alejandra Maldonado	11/18/22, 4:59:11 PM	11/18/22, 6:33:03 PM	1h 33m 52s	Alejandra.Maldonado@jala.university	Alejandra.Maldonado@jala.university	Presenter
Diego Alarcon Inturias	11/18/22, 4:59:19 PM	11/18/22, 6:32:58 PM	1h 33m 39s	Diego.Alarcon@jala.university	Diego.Alarcon@jala.university	Presenter
Renan Boaventura	11/18/22, 4:59:34 PM	11/18/22, 6:33:07 PM	1h 33m 33s	Renan.Boaventura@jala.university	Renan.Boaventura@jala.university	Presenter
Miguel Gemio Quispe	11/18/22, 5:00:12 PM	11/18/22, 6:27:44 PM	1h 27m 31s	Miguel.Gemio@jala.university	Miguel.Gemio@jala.university	Presenter
Ivan Gonzalez de la Torre	11/18/22, 5:00:25 PM	11/18/22, 6:28:46 PM	1h 28m 21s	Ivan.Gonzalez@jala.university	Ivan.Gonzalez@jala.university	Presenter
Dayana Hernandez Aquize	11/18/22, 5:00:32 PM	11/18/22, 6:33:00 PM	1h 32m 28s	Dayana.Hernandez@jala.university	Dayana.Hernandez@jala.university	Presenter
Maria Marquina Guevara	11/18/22, 5:00:41 PM	11/18/22, 6:32:57 PM	1h 32m 15s	Maria.Marquina@jala.university	Maria.Marquina@jala.university	Organizer
Alex Perez Castillo	11/18/22, 5:04:25 PM	11/18/22, 6:33:04 PM	1h 28m 39s	Alex.Perez@jala.university	Alex.Perez@jala.university	Presenter

3. In-Meeting activities
Name	Join time	Leave time	Duration	Email	Role
Kevin Butvilofsky	11/18/22, 4:55:33 PM	11/18/22, 6:33:00 PM	1h 37m 26s	Kevin.Butvilofsky@jala.university	Presenter
Sebastian Arbelaez Meneses	11/18/22, 4:55:46 PM	11/18/22, 6:33:08 PM	1h 37m 21s	Sebastian.Arbelaez@jala.university	Presenter
Rodrigo Morales Rivas	11/18/22, 4:56:54 PM	11/18/22, 6:33:00 PM	1h 36m 5s	Rodrigo.Morales@jala.university	Presenter
Miguel Pozo Morales	11/18/22, 4:57:32 PM	11/18/22, 6:32:59 PM	1h 35m 27s	Miguel.Pozo@jala.university	Presenter
Jose Mendoza Antonio	11/18/22, 4:57:40 PM	11/18/22, 6:33:01 PM	1h 35m 20s	Jose.Mendoza@jala.university	Presenter
Diego Quisbert Gutierrez	11/18/22, 4:57:56 PM	11/18/22, 6:32:59 PM	1h 35m 3s	Diego.Quisbert@jala.university	Presenter
Brayan Vasquez Rojas	11/18/22, 4:58:48 PM	11/18/22, 6:33:04 PM	1h 34m 16s	Brayan.Vasquez@jala.university	Presenter
Andre Arroyo Hinojosa	11/18/22, 4:58:48 PM	11/18/22, 6:33:00 PM	1h 34m 11s	Andre.Arroyo@jala.university	Presenter
Israel Zurita Sanchez	11/18/22, 4:58:56 PM	11/18/22, 6:33:11 PM	1h 34m 15s	Israel.Zurita@jala.university	Presenter
Miguel Paricahua Lopez	11/18/22, 4:59:02 PM	11/18/22, 6:32:58 PM	1h 33m 56s	Miguel.Paricahua@jala.university	Presenter
Nelson Delgado Colque	11/18/22, 4:59:04 PM	11/18/22, 6:33:01 PM	1h 33m 57s	Nelson.Delgado@jala.university	Presenter
Alejandra Maldonado	11/18/22, 4:59:11 PM	11/18/22, 6:33:03 PM	1h 33m 52s	Alejandra.Maldonado@jala.university	Presenter
Diego Alarcon Inturias	11/18/22, 4:59:19 PM	11/18/22, 6:32:58 PM	1h 33m 39s	Diego.Alarcon@jala.university	Presenter
Renan Boaventura	11/18/22, 4:59:34 PM	11/18/22, 6:33:07 PM	1h 33m 33s	Renan.Boaventura@jala.university	Presenter
Miguel Gemio Quispe	11/18/22, 5:00:12 PM	11/18/22, 6:27:44 PM	1h 27m 31s	Miguel.Gemio@jala.university	Presenter
Ivan Gonzalez de la Torre	11/18/22, 5:00:25 PM	11/18/22, 6:28:46 PM	1h 28m 21s	Ivan.Gonzalez@jala.university	Presenter
Dayana Hernandez Aquize	11/18/22, 5:00:32 PM	11/18/22, 6:33:00 PM	1h 32m 28s	Dayana.Hernandez@jala.university	Presenter
Maria Marquina Guevara	11/18/22, 5:00:41 PM	11/18/22, 6:32:57 PM	1h 32m 15s	Maria.Marquina@jala.university	Organizer
Alex Perez Castillo	11/18/22, 5:04:25 PM	11/18/22, 6:33:04 PM	1h 28m 39s	Alex.Perez@jala.university	Presenter
